{
  "Intems Create User" : {
    "transaction" : "Intems Create User",
    "sampleCount" : 6510,
    "errorCount" : 2702,
    "errorPct" : 41.505375,
    "meanResTime" : 9207.36927803382,
    "medianResTime" : 8705.0,
    "minResTime" : 35.0,
    "maxResTime" : 11056.0,
    "pct1ResTime" : 11002.0,
    "pct2ResTime" : 11004.0,
    "pct3ResTime" : 11011.89,
    "throughput" : 10.705775362902763,
    "receivedKBytesPerSec" : 3.9050182217106877,
    "sentKBytesPerSec" : 4.932469064153249
  },
  "Intems Get By Last Name and First Name" : {
    "transaction" : "Intems Get By Last Name and First Name",
    "sampleCount" : 6335,
    "errorCount" : 2745,
    "errorPct" : 43.330704,
    "meanResTime" : 9461.625887924258,
    "medianResTime" : 9168.0,
    "minResTime" : 292.0,
    "maxResTime" : 11058.0,
    "pct1ResTime" : 11002.0,
    "pct2ResTime" : 11004.0,
    "pct3ResTime" : 11014.64,
    "throughput" : 10.415347964691394,
    "receivedKBytesPerSec" : 1.7742027239176505,
    "sentKBytesPerSec" : 2.2071586995488603
  },
  "Intems Get By Location" : {
    "transaction" : "Intems Get By Location",
    "sampleCount" : 6421,
    "errorCount" : 2723,
    "errorPct" : 42.407726,
    "meanResTime" : 9337.993614701776,
    "medianResTime" : 8887.0,
    "minResTime" : 312.0,
    "maxResTime" : 11056.0,
    "pct1ResTime" : 11002.0,
    "pct2ResTime" : 11004.0,
    "pct3ResTime" : 11014.0,
    "throughput" : 10.55708735533535,
    "receivedKBytesPerSec" : 43.62339306170742,
    "sentKBytesPerSec" : 2.1535378974527184
  },
  "Total" : {
    "transaction" : "Total",
    "sampleCount" : 19266,
    "errorCount" : 8170,
    "errorPct" : 42.40631,
    "meanResTime" : 9334.50799335614,
    "medianResTime" : 8959.5,
    "minResTime" : 35.0,
    "maxResTime" : 11058.0,
    "pct1ResTime" : 11002.0,
    "pct2ResTime" : 11004.0,
    "pct3ResTime" : 11013.0,
    "throughput" : 31.67515294202753,
    "receivedKBytesPerSec" : 49.300190871835326,
    "sentKBytesPerSec" : 9.291845993009304
  }
}